^D:\C++\EMULATOR\INTEROP\INTEROP.CPP
D:\C++\EMULATOR\INTEROP\INTEROP.CPP
D:\PROGRAM FILES (X86)\MICROSOFT VISUAL STUDIO 10.0\VC\BIN\1033\CLUI.DLL
C:\WINDOWS\GLOBALIZATION\SORTING\SORTDEFAULT.NLS
C:\WINDOWS\SYSTEM32\RSAENH.DLL
C:\WINDOWS\MICROSOFT.NET\FRAMEWORK\V2.0.50727\MSCORWKS.DLL
C:\WINDOWS\MICROSOFT.NET\FRAMEWORK\V4.0.30319\CLR.DLL
D:\PROGRAM FILES (X86)\MICROSOFT VISUAL STUDIO 10.0\VC\BIN\CL.EXE.CONFIG
C:\WINDOWS\SYSTEM32\TZRES.DLL
C:\PROGRAM FILES (X86)\REFERENCE ASSEMBLIES\MICROSOFT\FRAMEWORK\.NETFRAMEWORK\V4.0\MSCORLIB.DLL
C:\PROGRAM FILES (X86)\REFERENCE ASSEMBLIES\MICROSOFT\FRAMEWORK\.NETFRAMEWORK\V4.0\SYSTEM.CORE.DLL
D:\C++\EMULATOR\INTEROP\INTEROP.H
D:\C++\EMULATOR\EMULATOR\BBC MICRO.H
D:\C++\EMULATOR\EMULATOR\MPU.H
D:\PROGRAM FILES (X86)\MICROSOFT VISUAL STUDIO 10.0\VC\INCLUDE\BITSET
D:\PROGRAM FILES (X86)\MICROSOFT VISUAL STUDIO 10.0\VC\INCLUDE\STRING
D:\PROGRAM FILES (X86)\MICROSOFT VISUAL STUDIO 10.0\VC\INCLUDE\ISTREAM
D:\PROGRAM FILES (X86)\MICROSOFT VISUAL STUDIO 10.0\VC\INCLUDE\OSTREAM
D:\PROGRAM FILES (X86)\MICROSOFT VISUAL STUDIO 10.0\VC\INCLUDE\IOS
D:\PROGRAM FILES (X86)\MICROSOFT VISUAL STUDIO 10.0\VC\INCLUDE\XLOCNUM
D:\PROGRAM FILES (X86)\MICROSOFT VISUAL STUDIO 10.0\VC\INCLUDE\CLIMITS
D:\PROGRAM FILES (X86)\MICROSOFT VISUAL STUDIO 10.0\VC\INCLUDE\YVALS.H
D:\PROGRAM FILES (X86)\MICROSOFT VISUAL STUDIO 10.0\VC\INCLUDE\CRTDEFS.H
D:\PROGRAM FILES (X86)\MICROSOFT VISUAL STUDIO 10.0\VC\INCLUDE\SAL.H
D:\PROGRAM FILES (X86)\MICROSOFT VISUAL STUDIO 10.0\VC\INCLUDE\CODEANALYSIS\SOURCEANNOTATIONS.H
D:\PROGRAM FILES (X86)\MICROSOFT VISUAL STUDIO 10.0\VC\INCLUDE\VADEFS.H
D:\PROGRAM FILES (X86)\MICROSOFT VISUAL STUDIO 10.0\VC\INCLUDE\USE_ANSI.H
D:\PROGRAM FILES (X86)\MICROSOFT VISUAL STUDIO 10.0\VC\INCLUDE\LIMITS.H
D:\PROGRAM FILES (X86)\MICROSOFT VISUAL STUDIO 10.0\VC\INCLUDE\CMATH
D:\PROGRAM FILES (X86)\MICROSOFT VISUAL STUDIO 10.0\VC\INCLUDE\MATH.H
D:\PROGRAM FILES (X86)\MICROSOFT VISUAL STUDIO 10.0\VC\INCLUDE\CSTDIO
D:\PROGRAM FILES (X86)\MICROSOFT VISUAL STUDIO 10.0\VC\INCLUDE\STDIO.H
D:\PROGRAM FILES (X86)\MICROSOFT VISUAL STUDIO 10.0\VC\INCLUDE\SWPRINTF.INL
D:\PROGRAM FILES (X86)\MICROSOFT VISUAL STUDIO 10.0\VC\INCLUDE\CSTDLIB
D:\PROGRAM FILES (X86)\MICROSOFT VISUAL STUDIO 10.0\VC\INCLUDE\STDLIB.H
D:\PROGRAM FILES (X86)\MICROSOFT VISUAL STUDIO 10.0\VC\INCLUDE\STREAMBUF
D:\PROGRAM FILES (X86)\MICROSOFT VISUAL STUDIO 10.0\VC\INCLUDE\XIOSBASE
D:\PROGRAM FILES (X86)\MICROSOFT VISUAL STUDIO 10.0\VC\INCLUDE\XLOCALE
D:\PROGRAM FILES (X86)\MICROSOFT VISUAL STUDIO 10.0\VC\INCLUDE\CSTRING
D:\PROGRAM FILES (X86)\MICROSOFT VISUAL STUDIO 10.0\VC\INCLUDE\STRING.H
D:\PROGRAM FILES (X86)\MICROSOFT VISUAL STUDIO 10.0\VC\INCLUDE\STDEXCEPT
D:\PROGRAM FILES (X86)\MICROSOFT VISUAL STUDIO 10.0\VC\INCLUDE\EXCEPTION
D:\PROGRAM FILES (X86)\MICROSOFT VISUAL STUDIO 10.0\VC\INCLUDE\XSTDDEF
D:\PROGRAM FILES (X86)\MICROSOFT VISUAL STUDIO 10.0\VC\INCLUDE\CSTDDEF
D:\PROGRAM FILES (X86)\MICROSOFT VISUAL STUDIO 10.0\VC\INCLUDE\STDDEF.H
D:\PROGRAM FILES (X86)\MICROSOFT VISUAL STUDIO 10.0\VC\INCLUDE\EH.H
D:\PROGRAM FILES (X86)\MICROSOFT VISUAL STUDIO 10.0\VC\INCLUDE\MALLOC.H
D:\PROGRAM FILES (X86)\MICROSOFT VISUAL STUDIO 10.0\VC\INCLUDE\XSTRING
D:\PROGRAM FILES (X86)\MICROSOFT VISUAL STUDIO 10.0\VC\INCLUDE\XMEMORY
D:\PROGRAM FILES (X86)\MICROSOFT VISUAL STUDIO 10.0\VC\INCLUDE\NEW
D:\PROGRAM FILES (X86)\MICROSOFT VISUAL STUDIO 10.0\VC\INCLUDE\XUTILITY
D:\PROGRAM FILES (X86)\MICROSOFT VISUAL STUDIO 10.0\VC\INCLUDE\UTILITY
D:\PROGRAM FILES (X86)\MICROSOFT VISUAL STUDIO 10.0\VC\INCLUDE\IOSFWD
D:\PROGRAM FILES (X86)\MICROSOFT VISUAL STUDIO 10.0\VC\INCLUDE\CWCHAR
D:\PROGRAM FILES (X86)\MICROSOFT VISUAL STUDIO 10.0\VC\INCLUDE\WCHAR.H
D:\PROGRAM FILES (X86)\MICROSOFT VISUAL STUDIO 10.0\VC\INCLUDE\WTIME.INL
D:\PROGRAM FILES (X86)\MICROSOFT VISUAL STUDIO 10.0\VC\INCLUDE\CRTDBG.H
D:\PROGRAM FILES (X86)\MICROSOFT VISUAL STUDIO 10.0\VC\INCLUDE\TYPE_TRAITS
D:\PROGRAM FILES (X86)\MICROSOFT VISUAL STUDIO 10.0\VC\INCLUDE\LIMITS
D:\PROGRAM FILES (X86)\MICROSOFT VISUAL STUDIO 10.0\VC\INCLUDE\YMATH.H
D:\PROGRAM FILES (X86)\MICROSOFT VISUAL STUDIO 10.0\VC\INCLUDE\CFLOAT
D:\PROGRAM FILES (X86)\MICROSOFT VISUAL STUDIO 10.0\VC\INCLUDE\FLOAT.H
D:\PROGRAM FILES (X86)\MICROSOFT VISUAL STUDIO 10.0\VC\INCLUDE\CRTWRN.H
D:\PROGRAM FILES (X86)\MICROSOFT VISUAL STUDIO 10.0\VC\INCLUDE\XTR1COMMON
D:\PROGRAM FILES (X86)\MICROSOFT VISUAL STUDIO 10.0\VC\INCLUDE\XFWRAP
D:\PROGRAM FILES (X86)\MICROSOFT VISUAL STUDIO 10.0\VC\INCLUDE\XFWRAP1
D:\PROGRAM FILES (X86)\MICROSOFT VISUAL STUDIO 10.0\VC\INCLUDE\XXTYPE_TRAITS
D:\PROGRAM FILES (X86)\MICROSOFT VISUAL STUDIO 10.0\VC\INCLUDE\TYPEINFO
D:\PROGRAM FILES (X86)\MICROSOFT VISUAL STUDIO 10.0\VC\INCLUDE\XLOCINFO
D:\PROGRAM FILES (X86)\MICROSOFT VISUAL STUDIO 10.0\VC\INCLUDE\XLOCINFO.H
D:\PROGRAM FILES (X86)\MICROSOFT VISUAL STUDIO 10.0\VC\INCLUDE\CTYPE.H
D:\PROGRAM FILES (X86)\MICROSOFT VISUAL STUDIO 10.0\VC\INCLUDE\LOCALE.H
D:\PROGRAM FILES (X86)\MICROSOFT VISUAL STUDIO 10.0\VC\INCLUDE\XDEBUG
D:\PROGRAM FILES (X86)\MICROSOFT VISUAL STUDIO 10.0\VC\INCLUDE\SYSTEM_ERROR
D:\PROGRAM FILES (X86)\MICROSOFT VISUAL STUDIO 10.0\VC\INCLUDE\CERRNO
D:\PROGRAM FILES (X86)\MICROSOFT VISUAL STUDIO 10.0\VC\INCLUDE\ERRNO.H
D:\PROGRAM FILES (X86)\MICROSOFT VISUAL STUDIO 10.0\VC\INCLUDE\SHARE.H
D:\PROGRAM FILES (X86)\MICROSOFT VISUAL STUDIO 10.0\VC\INCLUDE\XFUNCTIONAL
D:\PROGRAM FILES (X86)\MICROSOFT VISUAL STUDIO 10.0\VC\INCLUDE\VECTOR
D:\PROGRAM FILES (X86)\MICROSOFT VISUAL STUDIO 10.0\VC\INCLUDE\MEMORY
D:\PROGRAM FILES (X86)\MICROSOFT VISUAL STUDIO 10.0\VC\INCLUDE\INTRIN.H
D:\PROGRAM FILES (X86)\MICROSOFT VISUAL STUDIO 10.0\VC\INCLUDE\SETJMP.H
D:\PROGRAM FILES (X86)\MICROSOFT VISUAL STUDIO 10.0\VC\INCLUDE\SETJMPEX.H
D:\PROGRAM FILES (X86)\MICROSOFT VISUAL STUDIO 10.0\VC\INCLUDE\IMMINTRIN.H
D:\PROGRAM FILES (X86)\MICROSOFT VISUAL STUDIO 10.0\VC\INCLUDE\WMMINTRIN.H
D:\PROGRAM FILES (X86)\MICROSOFT VISUAL STUDIO 10.0\VC\INCLUDE\NMMINTRIN.H
D:\PROGRAM FILES (X86)\MICROSOFT VISUAL STUDIO 10.0\VC\INCLUDE\SMMINTRIN.H
D:\PROGRAM FILES (X86)\MICROSOFT VISUAL STUDIO 10.0\VC\INCLUDE\TMMINTRIN.H
D:\PROGRAM FILES (X86)\MICROSOFT VISUAL STUDIO 10.0\VC\INCLUDE\PMMINTRIN.H
D:\PROGRAM FILES (X86)\MICROSOFT VISUAL STUDIO 10.0\VC\INCLUDE\EMMINTRIN.H
D:\PROGRAM FILES (X86)\MICROSOFT VISUAL STUDIO 10.0\VC\INCLUDE\XMMINTRIN.H
D:\PROGRAM FILES (X86)\MICROSOFT VISUAL STUDIO 10.0\VC\INCLUDE\MMINTRIN.H
D:\PROGRAM FILES (X86)\MICROSOFT VISUAL STUDIO 10.0\VC\INCLUDE\AMMINTRIN.H
D:\PROGRAM FILES (X86)\MICROSOFT VISUAL STUDIO 10.0\VC\INCLUDE\MM3DNOW.H
D:\PROGRAM FILES (X86)\MICROSOFT VISUAL STUDIO 10.0\VC\INCLUDE\XXSHARED
C:\PROGRAM FILES (X86)\MICROSOFT SDKS\WINDOWS\V7.0A\INCLUDE\WINDOWS.H
C:\PROGRAM FILES (X86)\MICROSOFT SDKS\WINDOWS\V7.0A\INCLUDE\SDKDDKVER.H
D:\PROGRAM FILES (X86)\MICROSOFT VISUAL STUDIO 10.0\VC\INCLUDE\EXCPT.H
D:\PROGRAM FILES (X86)\MICROSOFT VISUAL STUDIO 10.0\VC\INCLUDE\STDARG.H
C:\PROGRAM FILES (X86)\MICROSOFT SDKS\WINDOWS\V7.0A\INCLUDE\WINDEF.H
C:\PROGRAM FILES (X86)\MICROSOFT SDKS\WINDOWS\V7.0A\INCLUDE\WINNT.H
C:\PROGRAM FILES (X86)\MICROSOFT SDKS\WINDOWS\V7.0A\INCLUDE\SPECSTRINGS.H
C:\PROGRAM FILES (X86)\MICROSOFT SDKS\WINDOWS\V7.0A\INCLUDE\SAL_SUPP.H
C:\PROGRAM FILES (X86)\MICROSOFT SDKS\WINDOWS\V7.0A\INCLUDE\SPECSTRINGS_SUPP.H
C:\PROGRAM FILES (X86)\MICROSOFT SDKS\WINDOWS\V7.0A\INCLUDE\SPECSTRINGS_STRICT.H
C:\PROGRAM FILES (X86)\MICROSOFT SDKS\WINDOWS\V7.0A\INCLUDE\SPECSTRINGS_UNDEF.H
C:\PROGRAM FILES (X86)\MICROSOFT SDKS\WINDOWS\V7.0A\INCLUDE\DRIVERSPECS.H
C:\PROGRAM FILES (X86)\MICROSOFT SDKS\WINDOWS\V7.0A\INCLUDE\SDV_DRIVERSPECS.H
C:\PROGRAM FILES (X86)\MICROSOFT SDKS\WINDOWS\V7.0A\INCLUDE\KERNELSPECS.H
C:\PROGRAM FILES (X86)\MICROSOFT SDKS\WINDOWS\V7.0A\INCLUDE\BASETSD.H
C:\PROGRAM FILES (X86)\MICROSOFT SDKS\WINDOWS\V7.0A\INCLUDE\GUIDDEF.H
C:\PROGRAM FILES (X86)\MICROSOFT SDKS\WINDOWS\V7.0A\INCLUDE\PSHPACK4.H
C:\PROGRAM FILES (X86)\MICROSOFT SDKS\WINDOWS\V7.0A\INCLUDE\POPPACK.H
C:\PROGRAM FILES (X86)\MICROSOFT SDKS\WINDOWS\V7.0A\INCLUDE\PSHPACK2.H
C:\PROGRAM FILES (X86)\MICROSOFT SDKS\WINDOWS\V7.0A\INCLUDE\PSHPACK8.H
C:\PROGRAM FILES (X86)\MICROSOFT SDKS\WINDOWS\V7.0A\INCLUDE\KTMTYPES.H
C:\PROGRAM FILES (X86)\MICROSOFT SDKS\WINDOWS\V7.0A\INCLUDE\WINBASE.H
C:\PROGRAM FILES (X86)\MICROSOFT SDKS\WINDOWS\V7.0A\INCLUDE\WINERROR.H
C:\PROGRAM FILES (X86)\MICROSOFT SDKS\WINDOWS\V7.0A\INCLUDE\WINGDI.H
C:\PROGRAM FILES (X86)\MICROSOFT SDKS\WINDOWS\V7.0A\INCLUDE\PSHPACK1.H
C:\PROGRAM FILES (X86)\MICROSOFT SDKS\WINDOWS\V7.0A\INCLUDE\WINUSER.H
C:\PROGRAM FILES (X86)\MICROSOFT SDKS\WINDOWS\V7.0A\INCLUDE\TVOUT.H
C:\PROGRAM FILES (X86)\MICROSOFT SDKS\WINDOWS\V7.0A\INCLUDE\WINNLS.H
C:\PROGRAM FILES (X86)\MICROSOFT SDKS\WINDOWS\V7.0A\INCLUDE\WINCON.H
C:\PROGRAM FILES (X86)\MICROSOFT SDKS\WINDOWS\V7.0A\INCLUDE\WINVER.H
C:\PROGRAM FILES (X86)\MICROSOFT SDKS\WINDOWS\V7.0A\INCLUDE\VERRSRC.H
C:\PROGRAM FILES (X86)\MICROSOFT SDKS\WINDOWS\V7.0A\INCLUDE\WINREG.H
C:\PROGRAM FILES (X86)\MICROSOFT SDKS\WINDOWS\V7.0A\INCLUDE\REASON.H
C:\PROGRAM FILES (X86)\MICROSOFT SDKS\WINDOWS\V7.0A\INCLUDE\WINNETWK.H
C:\PROGRAM FILES (X86)\MICROSOFT SDKS\WINDOWS\V7.0A\INCLUDE\WNNC.H
C:\PROGRAM FILES (X86)\MICROSOFT SDKS\WINDOWS\V7.0A\INCLUDE\CDERR.H
C:\PROGRAM FILES (X86)\MICROSOFT SDKS\WINDOWS\V7.0A\INCLUDE\DDE.H
C:\PROGRAM FILES (X86)\MICROSOFT SDKS\WINDOWS\V7.0A\INCLUDE\DDEML.H
C:\PROGRAM FILES (X86)\MICROSOFT SDKS\WINDOWS\V7.0A\INCLUDE\DLGS.H
C:\PROGRAM FILES (X86)\MICROSOFT SDKS\WINDOWS\V7.0A\INCLUDE\LZEXPAND.H
C:\PROGRAM FILES (X86)\MICROSOFT SDKS\WINDOWS\V7.0A\INCLUDE\MMSYSTEM.H
C:\PROGRAM FILES (X86)\MICROSOFT SDKS\WINDOWS\V7.0A\INCLUDE\NB30.H
C:\PROGRAM FILES (X86)\MICROSOFT SDKS\WINDOWS\V7.0A\INCLUDE\RPC.H
C:\PROGRAM FILES (X86)\MICROSOFT SDKS\WINDOWS\V7.0A\INCLUDE\RPCDCE.H
C:\PROGRAM FILES (X86)\MICROSOFT SDKS\WINDOWS\V7.0A\INCLUDE\RPCDCEP.H
C:\PROGRAM FILES (X86)\MICROSOFT SDKS\WINDOWS\V7.0A\INCLUDE\RPCNSI.H
C:\PROGRAM FILES (X86)\MICROSOFT SDKS\WINDOWS\V7.0A\INCLUDE\RPCNTERR.H
C:\PROGRAM FILES (X86)\MICROSOFT SDKS\WINDOWS\V7.0A\INCLUDE\RPCASYNC.H
C:\PROGRAM FILES (X86)\MICROSOFT SDKS\WINDOWS\V7.0A\INCLUDE\SHELLAPI.H
C:\PROGRAM FILES (X86)\MICROSOFT SDKS\WINDOWS\V7.0A\INCLUDE\WINPERF.H
C:\PROGRAM FILES (X86)\MICROSOFT SDKS\WINDOWS\V7.0A\INCLUDE\WINSOCK.H
C:\PROGRAM FILES (X86)\MICROSOFT SDKS\WINDOWS\V7.0A\INCLUDE\INADDR.H
C:\PROGRAM FILES (X86)\MICROSOFT SDKS\WINDOWS\V7.0A\INCLUDE\WINCRYPT.H
C:\PROGRAM FILES (X86)\MICROSOFT SDKS\WINDOWS\V7.0A\INCLUDE\BCRYPT.H
C:\PROGRAM FILES (X86)\MICROSOFT SDKS\WINDOWS\V7.0A\INCLUDE\NCRYPT.H
C:\PROGRAM FILES (X86)\MICROSOFT SDKS\WINDOWS\V7.0A\INCLUDE\WINEFS.H
C:\PROGRAM FILES (X86)\MICROSOFT SDKS\WINDOWS\V7.0A\INCLUDE\WINSCARD.H
C:\PROGRAM FILES (X86)\MICROSOFT SDKS\WINDOWS\V7.0A\INCLUDE\WTYPES.H
C:\PROGRAM FILES (X86)\MICROSOFT SDKS\WINDOWS\V7.0A\INCLUDE\RPCNDR.H
C:\PROGRAM FILES (X86)\MICROSOFT SDKS\WINDOWS\V7.0A\INCLUDE\RPCNSIP.H
C:\PROGRAM FILES (X86)\MICROSOFT SDKS\WINDOWS\V7.0A\INCLUDE\RPCSAL.H
C:\PROGRAM FILES (X86)\MICROSOFT SDKS\WINDOWS\V7.0A\INCLUDE\WINIOCTL.H
C:\PROGRAM FILES (X86)\MICROSOFT SDKS\WINDOWS\V7.0A\INCLUDE\WINSMCRD.H
C:\PROGRAM FILES (X86)\MICROSOFT SDKS\WINDOWS\V7.0A\INCLUDE\WINSPOOL.H
C:\PROGRAM FILES (X86)\MICROSOFT SDKS\WINDOWS\V7.0A\INCLUDE\PRSHT.H
C:\PROGRAM FILES (X86)\MICROSOFT SDKS\WINDOWS\V7.0A\INCLUDE\OLE2.H
C:\PROGRAM FILES (X86)\MICROSOFT SDKS\WINDOWS\V7.0A\INCLUDE\OBJBASE.H
C:\PROGRAM FILES (X86)\MICROSOFT SDKS\WINDOWS\V7.0A\INCLUDE\UNKNWN.H
C:\PROGRAM FILES (X86)\MICROSOFT SDKS\WINDOWS\V7.0A\INCLUDE\OBJIDL.H
C:\PROGRAM FILES (X86)\MICROSOFT SDKS\WINDOWS\V7.0A\INCLUDE\CGUID.H
C:\PROGRAM FILES (X86)\MICROSOFT SDKS\WINDOWS\V7.0A\INCLUDE\URLMON.H
C:\PROGRAM FILES (X86)\MICROSOFT SDKS\WINDOWS\V7.0A\INCLUDE\OLEIDL.H
C:\PROGRAM FILES (X86)\MICROSOFT SDKS\WINDOWS\V7.0A\INCLUDE\SERVPROV.H
C:\PROGRAM FILES (X86)\MICROSOFT SDKS\WINDOWS\V7.0A\INCLUDE\MSXML.H
C:\PROGRAM FILES (X86)\MICROSOFT SDKS\WINDOWS\V7.0A\INCLUDE\OAIDL.H
C:\PROGRAM FILES (X86)\MICROSOFT SDKS\WINDOWS\V7.0A\INCLUDE\PROPIDL.H
C:\PROGRAM FILES (X86)\MICROSOFT SDKS\WINDOWS\V7.0A\INCLUDE\OLEAUTO.H
C:\PROGRAM FILES (X86)\MICROSOFT SDKS\WINDOWS\V7.0A\INCLUDE\COMMDLG.H
C:\PROGRAM FILES (X86)\MICROSOFT SDKS\WINDOWS\V7.0A\INCLUDE\STRALIGN.H
C:\PROGRAM FILES (X86)\MICROSOFT SDKS\WINDOWS\V7.0A\INCLUDE\WINSVC.H
C:\PROGRAM FILES (X86)\MICROSOFT SDKS\WINDOWS\V7.0A\INCLUDE\MCX.H
C:\PROGRAM FILES (X86)\MICROSOFT SDKS\WINDOWS\V7.0A\INCLUDE\IMM.H
C:\PROGRAM FILES (X86)\MICROSOFT SDKS\WINDOWS\V7.0A\INCLUDE\IME_CMODES.H
D:\C++\EMULATOR\EMULATOR\TYPES.H
D:\C++\EMULATOR\EMULATOR\RAMROM.H
D:\C++\EMULATOR\EMULATOR\CONSTANTS.H
D:\C++\EMULATOR\EMULATOR\SYSTEMVIA.H
D:\C++\EMULATOR\EMULATOR\VIA.H
D:\C++\EMULATOR\EMULATOR\USERVIA.H
D:\C++\EMULATOR\EMULATOR\VIDEO.H
D:\C++\EMULATOR\EMULATOR\RS423SERIAL.H
D:\C++\EMULATOR\EMULATOR\READFILE.H
D:\PROGRAM FILES (X86)\MICROSOFT VISUAL STUDIO 10.0\VC\INCLUDE\IOSTREAM
D:\PROGRAM FILES (X86)\MICROSOFT VISUAL STUDIO 10.0\VC\INCLUDE\FSTREAM
C:\PROGRAM FILES (X86)\REFERENCE ASSEMBLIES\MICROSOFT\FRAMEWORK\.NETFRAMEWORK\V4.0\MICROSOFT.VISUALC.DLL
^C:\USERS\TOM\APPDATA\LOCAL\TEMP\.NETFRAMEWORK,VERSION=V4.0.ASSEMBLYATTRIBUTES.CPP
C:\PROGRAM FILES (X86)\MICROSOFT VISUAL STUDIO 10.0\VC\BIN\1033\CLUI.DLL
C:\WINDOWS\GLOBALIZATION\SORTING\SORTDEFAULT.NLS
C:\WINDOWS\SYSTEM32\RSAENH.DLL
C:\WINDOWS\MICROSOFT.NET\FRAMEWORK\V2.0.50727\MSCORWKS.DLL
C:\WINDOWS\MICROSOFT.NET\FRAMEWORK\V4.0.30319\CLR.DLL
C:\PROGRAM FILES (X86)\MICROSOFT VISUAL STUDIO 10.0\VC\BIN\CL.EXE.CONFIG
C:\WINDOWS\SYSTEM32\TZRES.DLL
C:\WINDOWS\MICROSOFT.NET\FRAMEWORK\V4.0.30319\MSCORLIB.DLL
C:\WINDOWS\MICROSOFT.NET\FRAMEWORK\V4.0.30319\MICROSOFT.VISUALC.DLL
^G:\GIT\EMULATOR\BBC-MICRO-EMULATOR\INTEROP\INTEROP.CPP
G:\GIT\EMULATOR\BBC-MICRO-EMULATOR\INTEROP\INTEROP.CPP
C:\PROGRAM FILES (X86)\MICROSOFT VISUAL STUDIO 10.0\VC\BIN\1033\CLUI.DLL
C:\WINDOWS\GLOBALIZATION\SORTING\SORTDEFAULT.NLS
C:\WINDOWS\SYSTEM32\RSAENH.DLL
C:\WINDOWS\MICROSOFT.NET\FRAMEWORK\V2.0.50727\MSCORWKS.DLL
C:\WINDOWS\MICROSOFT.NET\FRAMEWORK\V4.0.30319\CLR.DLL
C:\PROGRAM FILES (X86)\MICROSOFT VISUAL STUDIO 10.0\VC\BIN\CL.EXE.CONFIG
C:\WINDOWS\SYSTEM32\TZRES.DLL
C:\PROGRAM FILES (X86)\MICROSOFT VISUAL STUDIO 10.0\COMMON7\IDE\MSPDBSRV.EXE
C:\PROGRAM FILES (X86)\REFERENCE ASSEMBLIES\MICROSOFT\FRAMEWORK\.NETFRAMEWORK\V4.0\MSCORLIB.DLL
G:\GIT\EMULATOR\BBC-MICRO-EMULATOR\INTEROP\INTEROP.H
G:\GIT\EMULATOR\BBC-MICRO-EMULATOR\EMULATOR\BBC MICRO.H
G:\GIT\EMULATOR\BBC-MICRO-EMULATOR\EMULATOR\MPU.H
C:\PROGRAM FILES (X86)\MICROSOFT VISUAL STUDIO 10.0\VC\INCLUDE\BITSET
C:\PROGRAM FILES (X86)\MICROSOFT VISUAL STUDIO 10.0\VC\INCLUDE\STRING
C:\PROGRAM FILES (X86)\MICROSOFT VISUAL STUDIO 10.0\VC\INCLUDE\ISTREAM
C:\PROGRAM FILES (X86)\MICROSOFT VISUAL STUDIO 10.0\VC\INCLUDE\OSTREAM
C:\PROGRAM FILES (X86)\MICROSOFT VISUAL STUDIO 10.0\VC\INCLUDE\IOS
C:\PROGRAM FILES (X86)\MICROSOFT VISUAL STUDIO 10.0\VC\INCLUDE\XLOCNUM
C:\PROGRAM FILES (X86)\MICROSOFT VISUAL STUDIO 10.0\VC\INCLUDE\CLIMITS
C:\PROGRAM FILES (X86)\MICROSOFT VISUAL STUDIO 10.0\VC\INCLUDE\YVALS.H
C:\PROGRAM FILES (X86)\MICROSOFT VISUAL STUDIO 10.0\VC\INCLUDE\CRTDEFS.H
C:\PROGRAM FILES (X86)\MICROSOFT VISUAL STUDIO 10.0\VC\INCLUDE\SAL.H
C:\PROGRAM FILES (X86)\MICROSOFT VISUAL STUDIO 10.0\VC\INCLUDE\CODEANALYSIS\SOURCEANNOTATIONS.H
C:\PROGRAM FILES (X86)\MICROSOFT VISUAL STUDIO 10.0\VC\INCLUDE\VADEFS.H
C:\PROGRAM FILES (X86)\MICROSOFT VISUAL STUDIO 10.0\VC\INCLUDE\USE_ANSI.H
C:\PROGRAM FILES (X86)\MICROSOFT VISUAL STUDIO 10.0\VC\INCLUDE\LIMITS.H
C:\PROGRAM FILES (X86)\MICROSOFT VISUAL STUDIO 10.0\VC\INCLUDE\CMATH
C:\PROGRAM FILES (X86)\MICROSOFT VISUAL STUDIO 10.0\VC\INCLUDE\MATH.H
C:\PROGRAM FILES (X86)\MICROSOFT VISUAL STUDIO 10.0\VC\INCLUDE\CSTDIO
C:\PROGRAM FILES (X86)\MICROSOFT VISUAL STUDIO 10.0\VC\INCLUDE\STDIO.H
C:\PROGRAM FILES (X86)\MICROSOFT VISUAL STUDIO 10.0\VC\INCLUDE\SWPRINTF.INL
C:\PROGRAM FILES (X86)\MICROSOFT VISUAL STUDIO 10.0\VC\INCLUDE\CSTDLIB
C:\PROGRAM FILES (X86)\MICROSOFT VISUAL STUDIO 10.0\VC\INCLUDE\STDLIB.H
C:\PROGRAM FILES (X86)\MICROSOFT VISUAL STUDIO 10.0\VC\INCLUDE\STREAMBUF
C:\PROGRAM FILES (X86)\MICROSOFT VISUAL STUDIO 10.0\VC\INCLUDE\XIOSBASE
C:\PROGRAM FILES (X86)\MICROSOFT VISUAL STUDIO 10.0\VC\INCLUDE\XLOCALE
C:\PROGRAM FILES (X86)\MICROSOFT VISUAL STUDIO 10.0\VC\INCLUDE\CSTRING
C:\PROGRAM FILES (X86)\MICROSOFT VISUAL STUDIO 10.0\VC\INCLUDE\STRING.H
C:\PROGRAM FILES (X86)\MICROSOFT VISUAL STUDIO 10.0\VC\INCLUDE\STDEXCEPT
C:\PROGRAM FILES (X86)\MICROSOFT VISUAL STUDIO 10.0\VC\INCLUDE\EXCEPTION
C:\PROGRAM FILES (X86)\MICROSOFT VISUAL STUDIO 10.0\VC\INCLUDE\XSTDDEF
C:\PROGRAM FILES (X86)\MICROSOFT VISUAL STUDIO 10.0\VC\INCLUDE\CSTDDEF
C:\PROGRAM FILES (X86)\MICROSOFT VISUAL STUDIO 10.0\VC\INCLUDE\STDDEF.H
C:\PROGRAM FILES (X86)\MICROSOFT VISUAL STUDIO 10.0\VC\INCLUDE\EH.H
C:\PROGRAM FILES (X86)\MICROSOFT VISUAL STUDIO 10.0\VC\INCLUDE\MALLOC.H
C:\PROGRAM FILES (X86)\MICROSOFT VISUAL STUDIO 10.0\VC\INCLUDE\XSTRING
C:\PROGRAM FILES (X86)\MICROSOFT VISUAL STUDIO 10.0\VC\INCLUDE\XMEMORY
C:\PROGRAM FILES (X86)\MICROSOFT VISUAL STUDIO 10.0\VC\INCLUDE\NEW
C:\PROGRAM FILES (X86)\MICROSOFT VISUAL STUDIO 10.0\VC\INCLUDE\XUTILITY
C:\PROGRAM FILES (X86)\MICROSOFT VISUAL STUDIO 10.0\VC\INCLUDE\UTILITY
C:\PROGRAM FILES (X86)\MICROSOFT VISUAL STUDIO 10.0\VC\INCLUDE\IOSFWD
C:\PROGRAM FILES (X86)\MICROSOFT VISUAL STUDIO 10.0\VC\INCLUDE\CWCHAR
C:\PROGRAM FILES (X86)\MICROSOFT VISUAL STUDIO 10.0\VC\INCLUDE\WCHAR.H
C:\PROGRAM FILES (X86)\MICROSOFT VISUAL STUDIO 10.0\VC\INCLUDE\WTIME.INL
C:\PROGRAM FILES (X86)\MICROSOFT VISUAL STUDIO 10.0\VC\INCLUDE\CRTDBG.H
C:\PROGRAM FILES (X86)\MICROSOFT VISUAL STUDIO 10.0\VC\INCLUDE\TYPE_TRAITS
C:\PROGRAM FILES (X86)\MICROSOFT VISUAL STUDIO 10.0\VC\INCLUDE\LIMITS
C:\PROGRAM FILES (X86)\MICROSOFT VISUAL STUDIO 10.0\VC\INCLUDE\YMATH.H
C:\PROGRAM FILES (X86)\MICROSOFT VISUAL STUDIO 10.0\VC\INCLUDE\CFLOAT
C:\PROGRAM FILES (X86)\MICROSOFT VISUAL STUDIO 10.0\VC\INCLUDE\FLOAT.H
C:\PROGRAM FILES (X86)\MICROSOFT VISUAL STUDIO 10.0\VC\INCLUDE\CRTWRN.H
C:\PROGRAM FILES (X86)\MICROSOFT VISUAL STUDIO 10.0\VC\INCLUDE\XTR1COMMON
C:\PROGRAM FILES (X86)\MICROSOFT VISUAL STUDIO 10.0\VC\INCLUDE\XFWRAP
C:\PROGRAM FILES (X86)\MICROSOFT VISUAL STUDIO 10.0\VC\INCLUDE\XFWRAP1
C:\PROGRAM FILES (X86)\MICROSOFT VISUAL STUDIO 10.0\VC\INCLUDE\XXTYPE_TRAITS
C:\PROGRAM FILES (X86)\MICROSOFT VISUAL STUDIO 10.0\VC\INCLUDE\TYPEINFO
C:\PROGRAM FILES (X86)\MICROSOFT VISUAL STUDIO 10.0\VC\INCLUDE\XLOCINFO
C:\PROGRAM FILES (X86)\MICROSOFT VISUAL STUDIO 10.0\VC\INCLUDE\XLOCINFO.H
C:\PROGRAM FILES (X86)\MICROSOFT VISUAL STUDIO 10.0\VC\INCLUDE\CTYPE.H
C:\PROGRAM FILES (X86)\MICROSOFT VISUAL STUDIO 10.0\VC\INCLUDE\LOCALE.H
C:\PROGRAM FILES (X86)\MICROSOFT VISUAL STUDIO 10.0\VC\INCLUDE\XDEBUG
C:\PROGRAM FILES (X86)\MICROSOFT VISUAL STUDIO 10.0\VC\INCLUDE\SYSTEM_ERROR
C:\PROGRAM FILES (X86)\MICROSOFT VISUAL STUDIO 10.0\VC\INCLUDE\CERRNO
C:\PROGRAM FILES (X86)\MICROSOFT VISUAL STUDIO 10.0\VC\INCLUDE\ERRNO.H
C:\PROGRAM FILES (X86)\MICROSOFT VISUAL STUDIO 10.0\VC\INCLUDE\SHARE.H
C:\PROGRAM FILES (X86)\MICROSOFT VISUAL STUDIO 10.0\VC\INCLUDE\XFUNCTIONAL
C:\PROGRAM FILES (X86)\MICROSOFT VISUAL STUDIO 10.0\VC\INCLUDE\VECTOR
C:\PROGRAM FILES (X86)\MICROSOFT VISUAL STUDIO 10.0\VC\INCLUDE\MEMORY
C:\PROGRAM FILES (X86)\MICROSOFT VISUAL STUDIO 10.0\VC\INCLUDE\INTRIN.H
C:\PROGRAM FILES (X86)\MICROSOFT VISUAL STUDIO 10.0\VC\INCLUDE\SETJMP.H
C:\PROGRAM FILES (X86)\MICROSOFT VISUAL STUDIO 10.0\VC\INCLUDE\SETJMPEX.H
C:\PROGRAM FILES (X86)\MICROSOFT VISUAL STUDIO 10.0\VC\INCLUDE\IMMINTRIN.H
C:\PROGRAM FILES (X86)\MICROSOFT VISUAL STUDIO 10.0\VC\INCLUDE\WMMINTRIN.H
C:\PROGRAM FILES (X86)\MICROSOFT VISUAL STUDIO 10.0\VC\INCLUDE\NMMINTRIN.H
C:\PROGRAM FILES (X86)\MICROSOFT VISUAL STUDIO 10.0\VC\INCLUDE\SMMINTRIN.H
C:\PROGRAM FILES (X86)\MICROSOFT VISUAL STUDIO 10.0\VC\INCLUDE\TMMINTRIN.H
C:\PROGRAM FILES (X86)\MICROSOFT VISUAL STUDIO 10.0\VC\INCLUDE\PMMINTRIN.H
C:\PROGRAM FILES (X86)\MICROSOFT VISUAL STUDIO 10.0\VC\INCLUDE\EMMINTRIN.H
C:\PROGRAM FILES (X86)\MICROSOFT VISUAL STUDIO 10.0\VC\INCLUDE\XMMINTRIN.H
C:\PROGRAM FILES (X86)\MICROSOFT VISUAL STUDIO 10.0\VC\INCLUDE\MMINTRIN.H
C:\PROGRAM FILES (X86)\MICROSOFT VISUAL STUDIO 10.0\VC\INCLUDE\AMMINTRIN.H
C:\PROGRAM FILES (X86)\MICROSOFT VISUAL STUDIO 10.0\VC\INCLUDE\MM3DNOW.H
C:\PROGRAM FILES (X86)\MICROSOFT VISUAL STUDIO 10.0\VC\INCLUDE\XXSHARED
C:\PROGRAM FILES (X86)\MICROSOFT SDKS\WINDOWS\V7.0A\INCLUDE\WINDOWS.H
C:\PROGRAM FILES (X86)\MICROSOFT SDKS\WINDOWS\V7.0A\INCLUDE\SDKDDKVER.H
C:\PROGRAM FILES (X86)\MICROSOFT VISUAL STUDIO 10.0\VC\INCLUDE\EXCPT.H
C:\PROGRAM FILES (X86)\MICROSOFT VISUAL STUDIO 10.0\VC\INCLUDE\STDARG.H
C:\PROGRAM FILES (X86)\MICROSOFT SDKS\WINDOWS\V7.0A\INCLUDE\WINDEF.H
C:\PROGRAM FILES (X86)\MICROSOFT SDKS\WINDOWS\V7.0A\INCLUDE\WINNT.H
C:\PROGRAM FILES (X86)\MICROSOFT SDKS\WINDOWS\V7.0A\INCLUDE\SPECSTRINGS.H
C:\PROGRAM FILES (X86)\MICROSOFT SDKS\WINDOWS\V7.0A\INCLUDE\SAL_SUPP.H
C:\PROGRAM FILES (X86)\MICROSOFT SDKS\WINDOWS\V7.0A\INCLUDE\SPECSTRINGS_SUPP.H
C:\PROGRAM FILES (X86)\MICROSOFT SDKS\WINDOWS\V7.0A\INCLUDE\SPECSTRINGS_STRICT.H
C:\PROGRAM FILES (X86)\MICROSOFT SDKS\WINDOWS\V7.0A\INCLUDE\SPECSTRINGS_UNDEF.H
C:\PROGRAM FILES (X86)\MICROSOFT SDKS\WINDOWS\V7.0A\INCLUDE\DRIVERSPECS.H
C:\PROGRAM FILES (X86)\MICROSOFT SDKS\WINDOWS\V7.0A\INCLUDE\SDV_DRIVERSPECS.H
C:\PROGRAM FILES (X86)\MICROSOFT SDKS\WINDOWS\V7.0A\INCLUDE\KERNELSPECS.H
C:\PROGRAM FILES (X86)\MICROSOFT SDKS\WINDOWS\V7.0A\INCLUDE\BASETSD.H
C:\PROGRAM FILES (X86)\MICROSOFT SDKS\WINDOWS\V7.0A\INCLUDE\GUIDDEF.H
C:\PROGRAM FILES (X86)\MICROSOFT SDKS\WINDOWS\V7.0A\INCLUDE\PSHPACK4.H
C:\PROGRAM FILES (X86)\MICROSOFT SDKS\WINDOWS\V7.0A\INCLUDE\POPPACK.H
C:\PROGRAM FILES (X86)\MICROSOFT SDKS\WINDOWS\V7.0A\INCLUDE\PSHPACK2.H
C:\PROGRAM FILES (X86)\MICROSOFT SDKS\WINDOWS\V7.0A\INCLUDE\PSHPACK8.H
C:\PROGRAM FILES (X86)\MICROSOFT SDKS\WINDOWS\V7.0A\INCLUDE\KTMTYPES.H
C:\PROGRAM FILES (X86)\MICROSOFT SDKS\WINDOWS\V7.0A\INCLUDE\WINBASE.H
C:\PROGRAM FILES (X86)\MICROSOFT SDKS\WINDOWS\V7.0A\INCLUDE\WINERROR.H
C:\PROGRAM FILES (X86)\MICROSOFT SDKS\WINDOWS\V7.0A\INCLUDE\WINGDI.H
C:\PROGRAM FILES (X86)\MICROSOFT SDKS\WINDOWS\V7.0A\INCLUDE\PSHPACK1.H
C:\PROGRAM FILES (X86)\MICROSOFT SDKS\WINDOWS\V7.0A\INCLUDE\WINUSER.H
C:\PROGRAM FILES (X86)\MICROSOFT SDKS\WINDOWS\V7.0A\INCLUDE\TVOUT.H
C:\PROGRAM FILES (X86)\MICROSOFT SDKS\WINDOWS\V7.0A\INCLUDE\WINNLS.H
C:\PROGRAM FILES (X86)\MICROSOFT SDKS\WINDOWS\V7.0A\INCLUDE\WINCON.H
C:\PROGRAM FILES (X86)\MICROSOFT SDKS\WINDOWS\V7.0A\INCLUDE\WINVER.H
C:\PROGRAM FILES (X86)\MICROSOFT SDKS\WINDOWS\V7.0A\INCLUDE\VERRSRC.H
C:\PROGRAM FILES (X86)\MICROSOFT SDKS\WINDOWS\V7.0A\INCLUDE\WINREG.H
C:\PROGRAM FILES (X86)\MICROSOFT SDKS\WINDOWS\V7.0A\INCLUDE\REASON.H
C:\PROGRAM FILES (X86)\MICROSOFT SDKS\WINDOWS\V7.0A\INCLUDE\WINNETWK.H
C:\PROGRAM FILES (X86)\MICROSOFT SDKS\WINDOWS\V7.0A\INCLUDE\WNNC.H
C:\PROGRAM FILES (X86)\MICROSOFT SDKS\WINDOWS\V7.0A\INCLUDE\CDERR.H
C:\PROGRAM FILES (X86)\MICROSOFT SDKS\WINDOWS\V7.0A\INCLUDE\DDE.H
C:\PROGRAM FILES (X86)\MICROSOFT SDKS\WINDOWS\V7.0A\INCLUDE\DDEML.H
C:\PROGRAM FILES (X86)\MICROSOFT SDKS\WINDOWS\V7.0A\INCLUDE\DLGS.H
C:\PROGRAM FILES (X86)\MICROSOFT SDKS\WINDOWS\V7.0A\INCLUDE\LZEXPAND.H
C:\PROGRAM FILES (X86)\MICROSOFT SDKS\WINDOWS\V7.0A\INCLUDE\MMSYSTEM.H
C:\PROGRAM FILES (X86)\MICROSOFT SDKS\WINDOWS\V7.0A\INCLUDE\NB30.H
C:\PROGRAM FILES (X86)\MICROSOFT SDKS\WINDOWS\V7.0A\INCLUDE\RPC.H
C:\PROGRAM FILES (X86)\MICROSOFT SDKS\WINDOWS\V7.0A\INCLUDE\RPCDCE.H
C:\PROGRAM FILES (X86)\MICROSOFT SDKS\WINDOWS\V7.0A\INCLUDE\RPCDCEP.H
C:\PROGRAM FILES (X86)\MICROSOFT SDKS\WINDOWS\V7.0A\INCLUDE\RPCNSI.H
C:\PROGRAM FILES (X86)\MICROSOFT SDKS\WINDOWS\V7.0A\INCLUDE\RPCNTERR.H
C:\PROGRAM FILES (X86)\MICROSOFT SDKS\WINDOWS\V7.0A\INCLUDE\RPCASYNC.H
C:\PROGRAM FILES (X86)\MICROSOFT SDKS\WINDOWS\V7.0A\INCLUDE\SHELLAPI.H
C:\PROGRAM FILES (X86)\MICROSOFT SDKS\WINDOWS\V7.0A\INCLUDE\WINPERF.H
C:\PROGRAM FILES (X86)\MICROSOFT SDKS\WINDOWS\V7.0A\INCLUDE\WINSOCK.H
C:\PROGRAM FILES (X86)\MICROSOFT SDKS\WINDOWS\V7.0A\INCLUDE\INADDR.H
C:\PROGRAM FILES (X86)\MICROSOFT SDKS\WINDOWS\V7.0A\INCLUDE\WINCRYPT.H
C:\PROGRAM FILES (X86)\MICROSOFT SDKS\WINDOWS\V7.0A\INCLUDE\BCRYPT.H
C:\PROGRAM FILES (X86)\MICROSOFT SDKS\WINDOWS\V7.0A\INCLUDE\NCRYPT.H
C:\PROGRAM FILES (X86)\MICROSOFT SDKS\WINDOWS\V7.0A\INCLUDE\WINEFS.H
C:\PROGRAM FILES (X86)\MICROSOFT SDKS\WINDOWS\V7.0A\INCLUDE\WINSCARD.H
C:\PROGRAM FILES (X86)\MICROSOFT SDKS\WINDOWS\V7.0A\INCLUDE\WTYPES.H
C:\PROGRAM FILES (X86)\MICROSOFT SDKS\WINDOWS\V7.0A\INCLUDE\RPCNDR.H
C:\PROGRAM FILES (X86)\MICROSOFT SDKS\WINDOWS\V7.0A\INCLUDE\RPCNSIP.H
C:\PROGRAM FILES (X86)\MICROSOFT SDKS\WINDOWS\V7.0A\INCLUDE\RPCSAL.H
C:\PROGRAM FILES (X86)\MICROSOFT SDKS\WINDOWS\V7.0A\INCLUDE\WINIOCTL.H
C:\PROGRAM FILES (X86)\MICROSOFT SDKS\WINDOWS\V7.0A\INCLUDE\WINSMCRD.H
C:\PROGRAM FILES (X86)\MICROSOFT SDKS\WINDOWS\V7.0A\INCLUDE\WINSPOOL.H
C:\PROGRAM FILES (X86)\MICROSOFT SDKS\WINDOWS\V7.0A\INCLUDE\PRSHT.H
C:\PROGRAM FILES (X86)\MICROSOFT SDKS\WINDOWS\V7.0A\INCLUDE\OLE2.H
C:\PROGRAM FILES (X86)\MICROSOFT SDKS\WINDOWS\V7.0A\INCLUDE\OBJBASE.H
C:\PROGRAM FILES (X86)\MICROSOFT SDKS\WINDOWS\V7.0A\INCLUDE\UNKNWN.H
C:\PROGRAM FILES (X86)\MICROSOFT SDKS\WINDOWS\V7.0A\INCLUDE\OBJIDL.H
C:\PROGRAM FILES (X86)\MICROSOFT SDKS\WINDOWS\V7.0A\INCLUDE\CGUID.H
C:\PROGRAM FILES (X86)\MICROSOFT SDKS\WINDOWS\V7.0A\INCLUDE\URLMON.H
C:\PROGRAM FILES (X86)\MICROSOFT SDKS\WINDOWS\V7.0A\INCLUDE\OLEIDL.H
C:\PROGRAM FILES (X86)\MICROSOFT SDKS\WINDOWS\V7.0A\INCLUDE\SERVPROV.H
C:\PROGRAM FILES (X86)\MICROSOFT SDKS\WINDOWS\V7.0A\INCLUDE\MSXML.H
C:\PROGRAM FILES (X86)\MICROSOFT SDKS\WINDOWS\V7.0A\INCLUDE\OAIDL.H
C:\PROGRAM FILES (X86)\MICROSOFT SDKS\WINDOWS\V7.0A\INCLUDE\PROPIDL.H
C:\PROGRAM FILES (X86)\MICROSOFT SDKS\WINDOWS\V7.0A\INCLUDE\OLEAUTO.H
C:\PROGRAM FILES (X86)\MICROSOFT SDKS\WINDOWS\V7.0A\INCLUDE\COMMDLG.H
C:\PROGRAM FILES (X86)\MICROSOFT SDKS\WINDOWS\V7.0A\INCLUDE\STRALIGN.H
C:\PROGRAM FILES (X86)\MICROSOFT SDKS\WINDOWS\V7.0A\INCLUDE\WINSVC.H
C:\PROGRAM FILES (X86)\MICROSOFT SDKS\WINDOWS\V7.0A\INCLUDE\MCX.H
C:\PROGRAM FILES (X86)\MICROSOFT SDKS\WINDOWS\V7.0A\INCLUDE\IMM.H
C:\PROGRAM FILES (X86)\MICROSOFT SDKS\WINDOWS\V7.0A\INCLUDE\IME_CMODES.H
G:\GIT\EMULATOR\BBC-MICRO-EMULATOR\EMULATOR\TYPES.H
G:\GIT\EMULATOR\BBC-MICRO-EMULATOR\EMULATOR\RAMROM.H
G:\GIT\EMULATOR\BBC-MICRO-EMULATOR\EMULATOR\CONSTANTS.H
G:\GIT\EMULATOR\BBC-MICRO-EMULATOR\EMULATOR\SYSTEMVIA.H
G:\GIT\EMULATOR\BBC-MICRO-EMULATOR\EMULATOR\VIA.H
G:\GIT\EMULATOR\BBC-MICRO-EMULATOR\EMULATOR\USERVIA.H
G:\GIT\EMULATOR\BBC-MICRO-EMULATOR\EMULATOR\VIDEO.H
G:\GIT\EMULATOR\BBC-MICRO-EMULATOR\EMULATOR\RS423SERIAL.H
G:\GIT\EMULATOR\BBC-MICRO-EMULATOR\EMULATOR\READFILE.H
C:\PROGRAM FILES (X86)\MICROSOFT VISUAL STUDIO 10.0\VC\INCLUDE\IOSTREAM
C:\PROGRAM FILES (X86)\MICROSOFT VISUAL STUDIO 10.0\VC\INCLUDE\FSTREAM
G:\GIT\EMULATOR\BBC-MICRO-EMULATOR\6502ASSEMBLER\ASSEMBLER.H
C:\PROGRAM FILES (X86)\MICROSOFT VISUAL STUDIO 10.0\VC\INCLUDE\MAP
C:\PROGRAM FILES (X86)\MICROSOFT VISUAL STUDIO 10.0\VC\INCLUDE\XTREE
C:\PROGRAM FILES (X86)\MICROSOFT VISUAL STUDIO 10.0\VC\INCLUDE\SSTREAM
C:\PROGRAM FILES (X86)\MICROSOFT VISUAL STUDIO 10.0\VC\INCLUDE\ALGORITHM
C:\PROGRAM FILES (X86)\REFERENCE ASSEMBLIES\MICROSOFT\FRAMEWORK\.NETFRAMEWORK\V4.0\MICROSOFT.VISUALC.DLL
