^D:\C++\EMULATOR\EMULATOR\RELEASE\BBC MICRO.OBJ|D:\C++\EMULATOR\EMULATOR\RELEASE\MAIN.OBJ|D:\C++\EMULATOR\EMULATOR\RELEASE\MPU.OBJ|D:\C++\EMULATOR\EMULATOR\RELEASE\RAMROM.OBJ|D:\C++\EMULATOR\EMULATOR\RELEASE\READFILE.OBJ|D:\C++\EMULATOR\EMULATOR\RELEASE\RS423SERIAL.OBJ|D:\C++\EMULATOR\EMULATOR\RELEASE\SYSTEMVIA.OBJ|D:\C++\EMULATOR\EMULATOR\RELEASE\USERVIA.OBJ|D:\C++\EMULATOR\EMULATOR\RELEASE\VIA.OBJ|D:\C++\EMULATOR\EMULATOR\RELEASE\VIDEO.OBJ
D:\C++\EMULATOR\RELEASE\EMULATOR.LIB
^G:\GIT\EMULATOR\BBC-MICRO-EMULATOR\EMULATOR\RELEASE\BBC MICRO.OBJ|G:\GIT\EMULATOR\BBC-MICRO-EMULATOR\EMULATOR\RELEASE\MAIN.OBJ|G:\GIT\EMULATOR\BBC-MICRO-EMULATOR\EMULATOR\RELEASE\MPU.OBJ|G:\GIT\EMULATOR\BBC-MICRO-EMULATOR\EMULATOR\RELEASE\RAMROM.OBJ|G:\GIT\EMULATOR\BBC-MICRO-EMULATOR\EMULATOR\RELEASE\READFILE.OBJ|G:\GIT\EMULATOR\BBC-MICRO-EMULATOR\EMULATOR\RELEASE\RS423SERIAL.OBJ|G:\GIT\EMULATOR\BBC-MICRO-EMULATOR\EMULATOR\RELEASE\SYSTEMVIA.OBJ|G:\GIT\EMULATOR\BBC-MICRO-EMULATOR\EMULATOR\RELEASE\USERVIA.OBJ|G:\GIT\EMULATOR\BBC-MICRO-EMULATOR\EMULATOR\RELEASE\VIA.OBJ|G:\GIT\EMULATOR\BBC-MICRO-EMULATOR\EMULATOR\RELEASE\VIDEO.OBJ
G:\GIT\EMULATOR\BBC-MICRO-EMULATOR\RELEASE\EMULATOR.LIB
