^D:\C++\EMULATOR\EMULATOR\DEBUG\BBC MICRO.OBJ|D:\C++\EMULATOR\EMULATOR\DEBUG\MAIN.OBJ|D:\C++\EMULATOR\EMULATOR\DEBUG\MPU.OBJ|D:\C++\EMULATOR\EMULATOR\DEBUG\RAMROM.OBJ|D:\C++\EMULATOR\EMULATOR\DEBUG\READFILE.OBJ|D:\C++\EMULATOR\EMULATOR\DEBUG\RS423SERIAL.OBJ|D:\C++\EMULATOR\EMULATOR\DEBUG\SYSTEMVIA.OBJ|D:\C++\EMULATOR\EMULATOR\DEBUG\USERVIA.OBJ|D:\C++\EMULATOR\EMULATOR\DEBUG\VIA.OBJ|D:\C++\EMULATOR\EMULATOR\DEBUG\VIDEO.OBJ
D:\C++\EMULATOR\DEBUG\EMULATOR.LIB
^G:\GIT\EMULATOR\BBC-MICRO-EMULATOR\EMULATOR\DEBUG\BBC MICRO.OBJ|G:\GIT\EMULATOR\BBC-MICRO-EMULATOR\EMULATOR\DEBUG\MAIN.OBJ|G:\GIT\EMULATOR\BBC-MICRO-EMULATOR\EMULATOR\DEBUG\MPU.OBJ|G:\GIT\EMULATOR\BBC-MICRO-EMULATOR\EMULATOR\DEBUG\RAMROM.OBJ|G:\GIT\EMULATOR\BBC-MICRO-EMULATOR\EMULATOR\DEBUG\READFILE.OBJ|G:\GIT\EMULATOR\BBC-MICRO-EMULATOR\EMULATOR\DEBUG\RS423SERIAL.OBJ|G:\GIT\EMULATOR\BBC-MICRO-EMULATOR\EMULATOR\DEBUG\SYSTEMVIA.OBJ|G:\GIT\EMULATOR\BBC-MICRO-EMULATOR\EMULATOR\DEBUG\USERVIA.OBJ|G:\GIT\EMULATOR\BBC-MICRO-EMULATOR\EMULATOR\DEBUG\VIA.OBJ|G:\GIT\EMULATOR\BBC-MICRO-EMULATOR\EMULATOR\DEBUG\VIDEO.OBJ
G:\GIT\EMULATOR\BBC-MICRO-EMULATOR\DEBUG\EMULATOR.LIB
