^D:\C++\EMULATOR\EMULATOR\MPU.CPP
/c /Zi /nologo /W3 /WX- /Od /Gm /EHsc /RTC1 /MDd /GS /fp:precise /Zc:wchar_t /Zc:forScope /Fo"x64\Debug\\" /Fd"x64\Debug\vc100.pdb" /Gd /TP /errorReport:prompt D:\C++\EMULATOR\EMULATOR\MPU.CPP
^D:\C++\EMULATOR\EMULATOR\RAMROM.CPP
/c /Zi /nologo /W3 /WX- /Od /Gm /EHsc /RTC1 /MDd /GS /fp:precise /Zc:wchar_t /Zc:forScope /Fo"x64\Debug\\" /Fd"x64\Debug\vc100.pdb" /Gd /TP /errorReport:prompt D:\C++\EMULATOR\EMULATOR\RAMROM.CPP
^D:\C++\EMULATOR\EMULATOR\TEMP.CPP
/c /Zi /nologo /W3 /WX- /Od /Gm /EHsc /RTC1 /MDd /GS /fp:precise /Zc:wchar_t /Zc:forScope /Fo"x64\Debug\\" /Fd"x64\Debug\vc100.pdb" /Gd /TP /errorReport:prompt D:\C++\EMULATOR\EMULATOR\TEMP.CPP
^D:\C++\EMULATOR\EMULATOR\MAIN.CPP
/c /Zi /nologo /W3 /WX- /Od /Gm /EHsc /RTC1 /MDd /GS /fp:precise /Zc:wchar_t /Zc:forScope /Fo"x64\Debug\\" /Fd"x64\Debug\vc100.pdb" /Gd /TP /errorReport:prompt D:\C++\EMULATOR\EMULATOR\MAIN.CPP
